{
    "joints": {
        "id": "Neck",
        "in": [
            -0.4484745148689516,
            1.2892731591448932
        ],
        "out": [
            [
                -0.07556939894153226,
                1.2892731591448932
            ],
            "ANY",
            [
                0.4743770476310484,
                1.2892731591448932
            ],
            "ANY",
            [
                0.980712890625,
                1.2892731591448932
            ],
            "ANY"
        ],
        "texture": 7
    },
    "textures": [
        {
            "component": "Torso",
            "id": 7
        }
    ]
}