{
    "joints": {
        "components": [
            {
                "components": [
                    {
                        "id": "Lower Arm",
                        "in": [
                            0.5694543087121212,
                            0.3519999999999998
                        ],
                        "out": [
                            [
                                0.5694543087121212,
                                0.3519999999999998
                            ],
                            "ANY"
                        ],
                        "texture": 13
                    }
                ],
                "id": "Lower Arm",
                "in": [
                    0.949676513671875,
                    0.04131428571428566
                ],
                "out": [
                    [
                        0.949676513671875,
                        0.04131428571428566
                    ],
                    "ANY"
                ],
                "texture": 12
            }
        ],
        "id": "Upper Arm",
        "in": [
            0.8393893100247525,
            0.9184424778761061
        ],
        "out": [
            [
                0.15424853032178218,
                0.05118584070796453
            ],
            "ANY"
        ],
        "texture": 11
    },
    "textures": [
        {
            "component": "Upper Arm",
            "id": 11
        },
        {
            "component": "Lower Arm",
            "id": 12
        },
        {
            "component": "Hand",
            "id": 13
        }
    ]
}