{
    "joints": {
        "components": [
            {
                "components": [
                    {
                        "id": "Foot",
                        "in": [
                            "0.475992",
                            "0.158322"
                        ],
                        "out": [
                            [
                                "0.475992",
                                "0.158322",
                                "ANY"
                            ]
                        ],
                        "texture": 93
                    }
                ],
                "id": "Lower Leg",
                "in": [
                    "0.878414",
                    "-0.019776"
                ],
                "out": [
                    [
                        "0.878414",
                        "-0.019776",
                        "ANY"
                    ]
                ],
                "texture": 92
            }
        ],
        "id": "Upper Leg",
        "in": [
            "0.489102",
            "0.923927"
        ],
        "out": [
            [
                "0.470515",
                "0.080697",
                "ANY"
            ]
        ],
        "texture": 91
    },
    "textures": [
        {
            "component": "Upper Leg",
            "id": 91
        },
        {
            "component": "Lower Leg",
            "id": 92
        },
        {
            "component": "Foot",
            "id": 93
        }
    ]
}