{
    "joints": {
        "id": "Neck",
        "in": [
            0.023299678679435484,
            1.3130261282660332
        ],
        "out": [
            [
                0.3962047946068548,
                1.3130261282660332
            ],
            "ANY",
            [
                0.9461512411794355,
                1.3130261282660332
            ],
            "ANY",
            [
                1.452487084173387,
                1.3130261282660332
            ],
            "ANY"
        ],
        "texture": ""
    },
    "textures": []
}