{
    "joints": {
        "components": [
            {
                "components": [
                    {
                        "id": "Nose",
                        "in": [
                            5.048477,
                            5.43568
                        ],
                        "out": [
                            [
                                5.048477,
                                5.43568,
                                "ANY"
                            ]
                        ],
                        "texture": 51
                    },
                    {
                        "id": "Left Eyebrow",
                        "in": [
                            6.03252,
                            3.29568
                        ],
                        "out": [
                            [
                                6.03252,
                                3.29568,
                                "ANY"
                            ]
                        ],
                        "texture": 55
                    },
                    {
                        "id": "Right Eyebrow",
                        "in": [
                            8.213945,
                            3.33568
                        ],
                        "out": [
                            [
                                8.213945,
                                3.33568,
                                "ANY"
                            ]
                        ],
                        "texture": 54
                    },
                    {
                        "components": [
                            {
                                "id": "Left Pupil",
                                "in": [
                                    10.356113,
                                    3.33568
                                ],
                                "out": [
                                    [
                                        10.356113,
                                        3.33568,
                                        "ANY"
                                    ]
                                ],
                                "texture": 56
                            }
                        ],
                        "id": "Left Eye",
                        "in": [
                            14.528711,
                            12.0392
                        ],
                        "out": [
                            [
                                14.528711,
                                12.0392,
                                "ANY"
                            ]
                        ],
                        "texture": 53
                    },
                    {
                        "components": [
                            {
                                "id": "Right Pupil",
                                "in": [
                                    18.748965,
                                    3.25568
                                ],
                                "out": [
                                    [
                                        18.748965,
                                        3.25568,
                                        "ANY"
                                    ]
                                ],
                                "texture": 57
                            }
                        ],
                        "id": "Right Eye",
                        "in": [
                            9.75291,
                            5.49568
                        ],
                        "out": [
                            [
                                9.75291,
                                5.49568,
                                "ANY"
                            ]
                        ],
                        "texture": 52
                    }
                ],
                "id": "Upper Jaw",
                "in": [
                    1.970449,
                    5.47568
                ],
                "out": [
                    [
                        3.898477,
                        5.47568,
                        "ANY"
                    ],
                    [
                        6.99252,
                        5.47568,
                        "ANY"
                    ],
                    [
                        9.503945,
                        5.47568,
                        "ANY"
                    ],
                    [
                        11.381484,
                        5.47568,
                        "ANY"
                    ],
                    [
                        16.29291,
                        5.47568,
                        "ANY"
                    ]
                ],
                "texture": 50
            }
        ],
        "id": "Lower Jaw",
        "in": [
            -1.904434,
            5.43568
        ],
        "out": [
            [
                0.800449,
                5.43568,
                "ANY"
            ]
        ],
        "texture": 49
    },
    "textures": [
        {
            "component": "Lower Jaw",
            "id": 49
        },
        {
            "component": "Upper Jaw",
            "id": 50
        },
        {
            "component": "Nose",
            "id": 51
        },
        {
            "component": "Right Eye",
            "id": 52
        },
        {
            "component": "Left Eye",
            "id": 53
        },
        {
            "component": "Right Eyebrow",
            "id": 54
        },
        {
            "component": "Left Eyebrow",
            "id": 55
        },
        {
            "component": "Left Pupil",
            "id": 56
        },
        {
            "component": "Right Pupil",
            "id": 57
        }
    ]
}